<?xml version="1.0" encoding="UTF-8" standalone="no"?>
<!-- Created with Inkscape (http://www.inkscape.org/) -->

<svg
   xmlns:dc="http://purl.org/dc/elements/1.1/"
   xmlns:cc="http://creativecommons.org/ns#"
   xmlns:rdf="http://www.w3.org/1999/02/22-rdf-syntax-ns#"
   xmlns:svg="http://www.w3.org/2000/svg"
   xmlns="http://www.w3.org/2000/svg"
   xmlns:sodipodi="http://sodipodi.sourceforge.net/DTD/sodipodi-0.dtd"
   xmlns:inkscape="http://www.inkscape.org/namespaces/inkscape"
   width="16"
   height="16"
   viewBox="0 0 4.2333332 4.2333335"
   version="1.1"
   id="svg8"
   inkscape:version="0.92.3 (2405546, 2018-03-11)"
   sodipodi:docname="CentrePage-symbolic.svg">
  <defs
     id="defs2" />
  <sodipodi:namedview
     id="base"
     pagecolor="#ffffff"
     bordercolor="#666666"
     borderopacity="1.0"
     inkscape:pageopacity="0.0"
     inkscape:pageshadow="2"
     inkscape:zoom="31.678384"
     inkscape:cx="7.2355712"
     inkscape:cy="5.6774657"
     inkscape:document-units="mm"
     inkscape:current-layer="layer1"
     showgrid="false"
     units="px"
     inkscape:window-width="1920"
     inkscape:window-height="986"
     inkscape:window-x="-11"
     inkscape:window-y="-11"
     inkscape:window-maximized="1" />
  <metadata
     id="metadata5">
    <rdf:RDF>
      <cc:Work
         rdf:about="">
        <dc:format>image/svg+xml</dc:format>
        <dc:type
           rdf:resource="http://purl.org/dc/dcmitype/StillImage" />
        <dc:title></dc:title>
      </cc:Work>
    </rdf:RDF>
  </metadata>
  <g
     inkscape:label="Layer 1"
     inkscape:groupmode="layer"
     id="layer1"
     transform="translate(0,-292.76665)">
    <rect
       y="293.36209"
       x="1.1517707"
       height="3.012177"
       width="1.959888"
       id="rect843"
       style="opacity:1;fill:#fefefe;fill-opacity:1;stroke:#040404;stroke-width:0.07943123;stroke-miterlimit:4;stroke-dasharray:none;stroke-dashoffset:0;stroke-opacity:1;paint-order:normal" />
    <g
       id="g849"
       transform="matrix(0.01740004,0,0,0.01740004,0.3033617,291.94311)">
      <rect
         style="opacity:1;fill:#000000;fill-opacity:1;stroke:#000000;stroke-width:1.86499977;stroke-miterlimit:4;stroke-dasharray:none;stroke-dashoffset:0;stroke-opacity:1;paint-order:normal"
         id="rect845"
         width="18.007357"
         height="38.175594"
         x="16.252975"
         y="49.80357" />
      <rect
         y="-54.428566"
         x="49.80357"
         height="38.175594"
         width="18.007357"
         id="rect847"
         style="opacity:1;fill:#000000;fill-opacity:1;stroke:#000000;stroke-width:1.86499977;stroke-miterlimit:4;stroke-dasharray:none;stroke-dashoffset:0;stroke-opacity:1;paint-order:normal"
         transform="rotate(90)" />
    </g>
    <g
       transform="matrix(0,0.01740004,-0.01740004,0,4.5418462,292.5269)"
       id="g855">
      <rect
         y="49.80357"
         x="16.252975"
         height="38.175594"
         width="18.007357"
         id="rect851"
         style="opacity:1;fill:#000000;fill-opacity:1;stroke:#000000;stroke-width:1.86499977;stroke-miterlimit:4;stroke-dasharray:none;stroke-dashoffset:0;stroke-opacity:1;paint-order:normal" />
      <rect
         transform="rotate(90)"
         style="opacity:1;fill:#000000;fill-opacity:1;stroke:#000000;stroke-width:1.86499977;stroke-miterlimit:4;stroke-dasharray:none;stroke-dashoffset:0;stroke-opacity:1;paint-order:normal"
         id="rect853"
         width="18.007357"
         height="38.175594"
         x="49.80357"
         y="-54.428566" />
    </g>
    <g
       transform="matrix(-0.01740004,0,0,-0.01740004,3.9580639,297.79994)"
       id="g861">
      <rect
         y="49.80357"
         x="16.252975"
         height="38.175594"
         width="18.007357"
         id="rect857"
         style="opacity:1;fill:#000000;fill-opacity:1;stroke:#000000;stroke-width:1.86499977;stroke-miterlimit:4;stroke-dasharray:none;stroke-dashoffset:0;stroke-opacity:1;paint-order:normal" />
      <rect
         transform="rotate(90)"
         style="opacity:1;fill:#000000;fill-opacity:1;stroke:#000000;stroke-width:1.86499977;stroke-miterlimit:4;stroke-dasharray:none;stroke-dashoffset:0;stroke-opacity:1;paint-order:normal"
         id="rect859"
         width="18.007357"
         height="38.175594"
         x="49.80357"
         y="-54.428566" />
    </g>
    <g
       id="g867"
       transform="matrix(0,-0.01740004,0.01740004,0,-0.28042019,297.21615)">
      <rect
         style="opacity:1;fill:#000000;fill-opacity:1;stroke:#000000;stroke-width:1.86499977;stroke-miterlimit:4;stroke-dasharray:none;stroke-dashoffset:0;stroke-opacity:1;paint-order:normal"
         id="rect863"
         width="18.007357"
         height="38.175594"
         x="16.252975"
         y="49.80357" />
      <rect
         y="-54.428566"
         x="49.80357"
         height="38.175594"
         width="18.007357"
         id="rect865"
         style="opacity:1;fill:#000000;fill-opacity:1;stroke:#000000;stroke-width:1.86499977;stroke-miterlimit:4;stroke-dasharray:none;stroke-dashoffset:0;stroke-opacity:1;paint-order:normal"
         transform="rotate(90)" />
    </g>
  </g>
</svg>
